Spring Boot Version: ${spring-boot.version}
Spring Application Name: ${spring.application.name}
                                                            __
  ____  ____   ____  ____             _________.__. _______/  |_  ____   _____
_/ ___\/  _ \_/ ___\/  _ \   ______  /  ___<   |  |/  ___/\   __\/ __ \ /     \
\  \__(  <_> )  \__(  <_> ) /_____/  \___ \ \___  |\___ \  |  | \  ___/|  Y Y  \
 \___  >____/ \___  >____/          /____  >/ ____/____  > |__|  \___  >__|_|  /
     \/           \/                     \/ \/         \/            \/      \/